…
    ## Warning in FUN(X[[i]], ...): strings not representable in native encoding
    ## will be translated to UTF-8

``` r
brfss_td
```

    ## # A tibble: 2,892 x 23
    ##     year locationabbr locationdesc class topic question response
    ##    <int> <chr>        <chr>        <chr> <chr> <chr>    <fct>   
    ##  1  2010 AL           AL - Jeffer~ Heal~ Over~ How is ~ Excelle~
    ##  2  2010 AL           AL - Jeffer~ Heal~ Over~ How is ~ Good    
    ##  3  2010 AL           AL - Mobile~ Heal~ Over~ How is ~ Excelle~
    ##  4  2010 AL           AL - Mobile~ Heal~ Over~ How is ~ Good    
    ##  5  2010 AL           AL - Tuscal~ Heal~ Over~ How is ~ Excelle~
    ##  6  2010 AL           AL - Tuscal~ Heal~ Over~ How is ~ Good    
    ##  7  2010 AZ           AZ - Marico~ Heal~ Over~ How is ~ Excelle~
    ##  8  2010 AZ           AZ - Marico~ Heal~ Over~ How is ~ Good    
    ##  9  2010 AZ           AZ - Pinal ~ Heal~ Over~ How is ~ Excelle~
    ## 10  2010 AZ           AZ - Pinal ~ Heal~ Over~ How is ~ Good    
    ## # ... with 2,882 more rows, and 16 more variables: sample_size <int>,
    ## #   data_value <dbl>, confidence_limit_low <dbl>,
    ## #   confidence_limit_high <dbl>, display_order <int>,
    ## #   data_value_unit <chr>, data_value_type <chr>,
    ## #   data_value_footnote_symbol <chr>, data_value_footnote <chr>,
    ## #   data_source <chr>, class_id <chr>, topic_id <chr>, location_id <chr>,
    ## #   question_id <chr>, respid <chr>, geo_location <chr>
